index
…
gapminder <- read_csv('https://raw.githubusercontent.com/OHI-Science/data-science-training/master/data/gapminder.csv')

## Parsed with column specification:
## cols(
##   country = col_character(),
##   year = col_integer(),
##   pop = col_double(),
##   continent = col_character(),
##   lifeExp = col_double(),
##   gdpPercap = col_double()
## )

gapminder

## # A tibble: 1,704 x 6
##        country  year      pop continent lifeExp gdpPercap
##          <chr> <int>    <dbl>     <chr>   <dbl>     <dbl>
##  1 Afghanistan  1952  8425333      Asia  28.801  779.4453
##  2 Afghanistan  1957  9240934      Asia  30.332  820.8530
##  3 Afghanistan  1962 10267083      Asia  31.997  853.1007
##  4 Afghanistan  1967 11537966      Asia  34.020  836.1971
##  5 Afghanistan  1972 13079460      Asia  36.088  739.9811
##  6 Afghanistan  1977 14880372      Asia  38.438  786.1134
##  7 Afghanistan  1982 12881816      Asia  39.854  978.0114
##  8 Afghanistan  1987 13867957      Asia  40.822  852.3959
##  9 Afghanistan  1992 16317921      Asia  41.674  649.3414
## 10 Afghanistan  1997 22227415      Asia  41.763  635.3414
## # ... with 1,694 more rows
…
gapminder %>% filter(country == "Sweden") %>% 
  summarize(mean(lifeExp))

## # A tibble: 1 x 1
##   `mean(lifeExp)`
##             <dbl>
## 1          76.177

select(gapminder, year, lifeExp)

## # A tibble: 1,704 x 2
##     year lifeExp
##    <int>   <dbl>
##  1  1952  28.801
##  2  1957  30.332
##  3  1962  31.997
##  4  1967  34.020
##  5  1972  36.088
##  6  1977  38.438
##  7  1982  39.854
##  8  1987  40.822
##  9  1992  41.674
## 10  1997  41.763
## # ... with 1,694 more rows
…
gapminder %>% 
  filter(country=="Mexico", 
         year==2002)

## # A tibble: 1 x 6
##   country  year       pop continent lifeExp gdpPercap
##     <chr> <int>     <dbl>     <chr>   <dbl>     <dbl>
## 1  Mexico  2002 102479927  Americas  74.902  10742.44

## mutate

gapminder %>% 
  mutate(gdp = pop * gdpPercap)

## # A tibble: 1,704 x 7
##        country  year      pop continent lifeExp gdpPercap         gdp
##          <chr> <int>    <dbl>     <chr>   <dbl>     <dbl>       <dbl>
##  1 Afghanistan  1952  8425333      Asia  28.801  779.4453  6567086330
##  2 Afghanistan  1957  9240934      Asia  30.332  820.8530  7585448670
##  3 Afghanistan  1962 10267083      Asia  31.997  853.1007  8758855797
##  4 Afghanistan  1967 11537966      Asia  34.020  836.1971  9648014150
##  5 Afghanistan  1972 13079460      Asia  36.088  739.9811  9678553274
##  6 Afghanistan  1977 14880372      Asia  38.438  786.1134 11697659231
##  7 Afghanistan  1982 12881816      Asia  39.854  978.0114 12598563401
##  8 Afghanistan  1987 13867957      Asia  40.822  852.3959 11820990309
##  9 Afghanistan  1992 16317921      Asia  41.674  649.3414 10595901589
## 10 Afghanistan  1997 22227415      Asia  41.763  635.3414 14121995875
## # ... with 1,694 more rows
…
## # A tibble: 2 x 2
##   country max_gpdPercap
##     <chr>         <dbl>
## 1   Egypt      5581.181
## 2 Vietnam      2441.576

gapminder %>% 
  group_by(country) %>% 
  summarize(max_gpdPercap = max(gdpPercap))

## # A tibble: 142 x 2
##        country max_gpdPercap
##          <chr>         <dbl>
##  1 Afghanistan      978.0114
##  2     Albania     5937.0295
##  3     Algeria     6223.3675
##  4      Angola     5522.7764
##  5   Argentina    12779.3796
##  6   Australia    34435.3674
##  7     Austria    36126.4927
##  8     Bahrain    29796.0483
##  9  Bangladesh     1391.2538
## 10     Belgium    33692.6051
## # ... with 132 more rows

## keep yar of max
gapminder %>% 
  group_by(country) %>% 
  mutate(max_gpdPercap = max(gdpPercap)) %>% 
  filter(max_gpdPercap == gdpPercap) %>% 
  arrange(desc(max_gpdPercap))

## # A tibble: 142 x 7
## # Groups:   country [142]
##            country  year       pop continent lifeExp gdpPercap
##              <chr> <int>     <dbl>     <chr>   <dbl>     <dbl>
##  1          Kuwait  1957    212846      Asia  58.033 113523.13
##  2          Norway  2007   4627926    Europe  80.196  49357.19
##  3       Singapore  2007   4553009      Asia  79.972  47143.18
##  4   United States  2007 301139947  Americas  78.242  42951.65
##  5         Ireland  2007   4109086    Europe  78.885  40676.00
##  6 Hong Kong China  2007   6980412      Asia  82.208  39724.98
##  7     Switzerland  2007   7554661    Europe  81.701  37506.42
##  8     Netherlands  2007  16570613    Europe  79.762  36797.93
##  9          Canada  2007  33390141  Americas  80.653  36319.24
## 10         Iceland  2007    301931    Europe  81.757  36180.79
## # ... with 132 more rows, and 1 more variables: max_gpdPercap <dbl>

gapminder %>% 
  group_by(country) %>% 
  # mutate(max_gpdPercap = max(gdpPercap)) %>% 
  filter(gdpPercap == max(gdpPercap))

## # A tibble: 142 x 6
## # Groups:   country [142]
##        country  year       pop continent lifeExp  gdpPercap
##          <chr> <int>     <dbl>     <chr>   <dbl>      <dbl>
##  1 Afghanistan  1982  12881816      Asia  39.854   978.0114
##  2     Albania  2007   3600523    Europe  76.423  5937.0295
##  3     Algeria  2007  33333216    Africa  72.301  6223.3675
##  4      Angola  1967   5247469    Africa  35.985  5522.7764
##  5   Argentina  2007  40301927  Americas  75.320 12779.3796
##  6   Australia  2007  20434176   Oceania  81.235 34435.3674
##  7     Austria  2007   8199783    Europe  79.829 36126.4927
##  8     Bahrain  2007    708573      Asia  75.635 29796.0483
##  9  Bangladesh  2007 150448339      Asia  64.062  1391.2538
## 10     Belgium  2007  10392226    Europe  79.441 33692.6051
## # ... with 132 more rows
